%YAML 1.1
%TAG !u! tag:unity3d.com,2011:
--- !u!114 &11400000
MonoBehaviour:
  m_ObjectHideFlags: 0
  m_CorrespondingSourceObject: {fileID: 0}
  m_PrefabInternal: {fileID: 0}
  m_GameObject: {fileID: 0}
  m_Enabled: 1
  m_EditorHideFlags: 0
  m_Script: {fileID: 11500000, guid: 25056822beea11d40a4e701877cae1fa, type: 3}
  m_Name: Pikeman
  m_EditorClassIdentifier: 
  points:
  - points:
    - {x: 0, y: 0, z: 0}
    - {x: -0.025579453, y: -0.033981323, z: 0.018582225}
    - {x: -0.051158905, y: -0.06796265, z: 0.03716445}
    - {x: -0.08128929, y: -0.09342575, z: 0.04580939}
    - {x: -0.11141968, y: -0.118888855, z: 0.054454327}
    - {x: -0.15963268, y: -0.1524167, z: 0.065722466}
    - {x: -0.20784569, y: -0.18594456, z: 0.076990604}
    - {x: -0.2708087, y: -0.22730732, z: 0.088146806}
    - {x: -0.3337717, y: -0.26867008, z: 0.09930301}
    - {x: -0.40965962, y: -0.3183155, z: 0.11146104}
    - {x: -0.48554754, y: -0.36796093, z: 0.12361908}
    - {x: -0.57347655, y: -0.4226637, z: 0.13361228}
    - {x: -0.66140556, y: -0.47736645, z: 0.14360547}
    - {x: -0.7517929, y: -0.5335789, z: 0.1493491}
    - {x: -0.84218025, y: -0.5897913, z: 0.15509272}
    - {x: -0.9365647, y: -0.649415, z: 0.15937078}
    - {x: -1.0309491, y: -0.70903873, z: 0.16364884}
    - {x: -1.1274316, y: -0.7762451, z: 0.1635654}
    - {x: -1.2239141, y: -0.8434515, z: 0.16348195}
    - {x: -1.3226442, y: -0.91675234, z: 0.16091585}
    - {x: -1.4213743, y: -0.9900532, z: 0.15834975}
    - {x: -1.5183959, y: -1.0663629, z: 0.152619}
    - {x: -1.6154175, y: -1.1426725, z: 0.14688826}
    - {x: -1.7043076, y: -1.2175522, z: 0.13943243}
    - {x: -1.7931976, y: -1.2924318, z: 0.1319766}
    - {x: -1.8713593, y: -1.3614397, z: 0.12482631}
    - {x: -1.9495211, y: -1.4304476, z: 0.11767602}
    - {x: -2.0195706, y: -1.4917603, z: 0.11355317}
    - {x: -2.08962, y: -1.5530729, z: 0.10943031}
    - {x: -2.1453474, y: -1.6058607, z: 0.11055231}
    - {x: -2.2010746, y: -1.6586485, z: 0.11167431}
    - {x: -2.2460105, y: -1.7061286, z: 0.11546278}
    - {x: -2.2909465, y: -1.7536087, z: 0.11925125}
    - {x: -2.3294818, y: -1.7961636, z: 0.1241138}
    - {x: -2.3680172, y: -1.8387184, z: 0.12897635}
    - {x: -2.3960528, y: -1.8737607, z: 0.13376355}
    - {x: -2.4240885, y: -1.908803, z: 0.13855076}
    - {x: -2.43974, y: -1.9341612, z: 0.14545012}
    - {x: -2.4553914, y: -1.9595194, z: 0.15234947}
    - {x: -2.4480143, y: -2.0254545, z: 0.17656994}
    - {x: -2.3573089, y: -2.065916, z: 0.20005083}
    - {x: -2.2785635, y: -2.0761223, z: 0.20824194}
    - {x: -2.1741438, y: -2.077074, z: 0.22094393}
    - {x: -2.0481005, y: -2.0747976, z: 0.23246098}
    - {x: -1.8953128, y: -2.0663576, z: 0.24124622}
    - {x: -1.7273378, y: -2.0545282, z: 0.24538183}
    - {x: -1.5464458, y: -2.0398235, z: 0.2417152}
    - {x: -1.3564696, y: -2.0246868, z: 0.22761011}
    - {x: -1.1669526, y: -2.01371, z: 0.20671368}
    - {x: -0.9869075, y: -1.997201, z: 0.17703962}
    - {x: -0.81734514, y: -1.9791231, z: 0.14282465}
    - {x: -0.6598153, y: -1.9596453, z: 0.107311726}
    - {x: -0.52113914, y: -1.9405136, z: 0.07376552}
    - {x: -0.40399742, y: -1.9181528, z: 0.040489912}
    - {x: -0.3118534, y: -1.8941584, z: 0.014147282}
    - {x: -0.25127983, y: -1.8680601, z: -0.004858494}
    - {x: -0.21514511, y: -1.8291578, z: -0.01928711}
    - {x: -0.19902706, y: -1.780839, z: -0.028185844}
    - {x: -0.20524693, y: -1.7188015, z: -0.028609753}
    - {x: -0.23846054, y: -1.6436634, z: -0.022570848}
    - {x: -0.29533672, y: -1.557828, z: -0.0075495243}
    - {x: -0.3709755, y: -1.4697695, z: 0.011755943}
    - {x: -0.4674878, y: -1.3742113, z: 0.03542161}
    - {x: -0.57207775, y: -1.2673864, z: 0.0614357}
    - {x: -0.6835141, y: -1.159296, z: 0.09467578}
    - {x: -0.7978587, y: -1.0568552, z: 0.1310153}
    - {x: -0.9237466, y: -0.9595213, z: 0.17345953}
    - {x: -1.0570054, y: -0.86121273, z: 0.21059394}
    - {x: -1.1926298, y: -0.75771236, z: 0.24539232}
    - {x: -1.3274717, y: -0.65519905, z: 0.2770965}
    - {x: -1.4621758, y: -0.553915, z: 0.30926132}
    - {x: -1.5978193, y: -0.44965553, z: 0.33977175}
    - {x: -1.7167416, y: -0.3523693, z: 0.35997987}
    - {x: -1.8363357, y: -0.2562847, z: 0.38074923}
    - {x: -1.948143, y: -0.16830063, z: 0.39852786}
    - {x: -2.0463681, y: -0.08893108, z: 0.4192176}
    - {x: -2.1342025, y: -0.02391243, z: 0.436718}
    - {x: -2.21669, y: 0.022268295, z: 0.4573946}
    - {x: -2.283445, y: 0.046740532, z: 0.4796059}
    - {x: -2.3373952, y: 0.07398224, z: 0.4947214}
    - {x: -4.1153626, y: -1.923255, z: 0.75161934}
  - points:
    - {x: 0, y: 0, z: 0}
    - {x: -0.009771853, y: -0.033981323, z: 0.030068561}
    - {x: -0.019543706, y: -0.06796265, z: 0.060137123}
    - {x: -0.03883833, y: -0.09342575, z: 0.08484122}
    - {x: -0.058132958, y: -0.118888855, z: 0.10954533}
    - {x: -0.09051485, y: -0.1524167, z: 0.14700034}
    - {x: -0.122896746, y: -0.18594456, z: 0.18445535}
    - {x: -0.16727744, y: -0.22730732, z: 0.23048964}
    - {x: -0.21165814, y: -0.26867008, z: 0.27652392}
    - {x: -0.26590642, y: -0.3183155, z: 0.3309658}
    - {x: -0.32015473, y: -0.36796093, z: 0.38540766}
    - {x: -0.38541695, y: -0.4226637, z: 0.44517568}
    - {x: -0.45067915, y: -0.47736645, z: 0.5049437}
    - {x: -0.520428, y: -0.5335789, z: 0.56271875}
    - {x: -0.59017694, y: -0.5897913, z: 0.6204938}
    - {x: -0.66402096, y: -0.649415, z: 0.67943263}
    - {x: -0.737865, y: -0.70903873, z: 0.73837143}
    - {x: -0.81597, y: -0.7762451, z: 0.7950149}
    - {x: -0.89407504, y: -0.8434515, z: 0.8516584}
    - {x: -0.97545767, y: -0.91675234, z: 0.9076145}
    - {x: -1.0568403, y: -0.9900532, z: 0.9635706}
    - {x: -1.1387008, y: -1.0663629, z: 1.0159621}
    - {x: -1.2205614, y: -1.1426725, z: 1.0683538}
    - {x: -1.2968575, y: -1.2175522, z: 1.1145701}
    - {x: -1.3731534, y: -1.2924318, z: 1.1607865}
    - {x: -1.4405904, y: -1.3614397, z: 1.2009442}
    - {x: -1.5080274, y: -1.4304476, z: 1.2411017}
    - {x: -1.567122, y: -1.4917603, z: 1.2789403}
    - {x: -1.6262167, y: -1.5530729, z: 1.316779}
    - {x: -1.6706414, y: -1.6058607, z: 1.3504423}
    - {x: -1.7150662, y: -1.6586485, z: 1.3841057}
    - {x: -1.7491933, y: -1.7061286, z: 1.4135834}
    - {x: -1.7833205, y: -1.7536087, z: 1.443061}
    - {x: -1.8116381, y: -1.7961636, z: 1.4696454}
    - {x: -1.8399557, y: -1.8387184, z: 1.4962298}
    - {x: -1.8598232, y: -1.8737607, z: 1.5165817}
    - {x: -1.8796906, y: -1.908803, z: 1.5369335}
    - {x: -1.8882977, y: -1.9341612, z: 1.5517149}
    - {x: -1.8969046, y: -1.9595194, z: 1.5664963}
    - {x: -1.8766999, y: -2.0254545, z: 1.5817549}
    - {x: -1.789516, y: -2.065916, z: 1.547436}
    - {x: -1.7209951, y: -2.0761223, z: 1.5077775}
    - {x: -1.6290517, y: -2.077074, z: 1.4566772}
    - {x: -1.5203109, y: -2.0747976, z: 1.3919083}
    - {x: -1.3915392, y: -2.0663576, z: 1.3092093}
    - {x: -1.2532138, y: -2.0545282, z: 1.2138219}
    - {x: -1.1090243, y: -2.0398235, z: 1.1045299}
    - {x: -0.9636211, y: -2.0246868, z: 0.98145336}
    - {x: -0.82258123, y: -2.01371, z: 0.85315245}
    - {x: -0.69436365, y: -1.997201, z: 0.7233178}
    - {x: -0.5772959, y: -1.9791231, z: 0.59597105}
    - {x: -0.47072554, y: -1.9596453, z: 0.47464675}
    - {x: -0.37825215, y: -1.9405136, z: 0.3659955}
    - {x: -0.3030414, y: -1.9181528, z: 0.2702208}
    - {x: -0.24397914, y: -1.8941584, z: 0.19474824}
    - {x: -0.2061454, y: -1.8680601, z: 0.14376798}
    - {x: -0.18539272, y: -1.8291578, z: 0.110855535}
    - {x: -0.1775835, y: -1.780839, z: 0.09418236}
    - {x: -0.18286464, y: -1.7188015, z: 0.09749535}
    - {x: -0.20618545, y: -1.6436634, z: 0.121903405}
    - {x: -0.24336992, y: -1.557828, z: 0.16748689}
    - {x: -0.2932155, y: -1.4697695, z: 0.2275647}
    - {x: -0.35738528, y: -1.3742113, z: 0.30343914}
    - {x: -0.42670962, y: -1.2673864, z: 0.3859614}
    - {x: -0.4973255, y: -1.159296, z: 0.47835386}
    - {x: -0.5684724, y: -1.0568552, z: 0.5749632}
    - {x: -0.6453697, y: -0.9595213, z: 0.6832964}
    - {x: -0.7313513, y: -0.86121273, z: 0.7916663}
    - {x: -0.82061976, y: -0.75771236, z: 0.89953685}
    - {x: -0.9110739, y: -0.65519905, z: 1.0044441}
    - {x: -1.0011458, y: -0.553915, z: 1.1096431}
    - {x: -1.0929501, y: -0.44965553, z: 1.2140558}
    - {x: -1.1772822, y: -0.3523693, z: 1.3003052}
    - {x: -1.261828, y: -0.2562847, z: 1.3874037}
    - {x: -1.3418319, y: -0.16830063, z: 1.4675057}
    - {x: -1.4091367, y: -0.08893108, z: 1.5419793}
    - {x: -1.4699097, y: -0.02391243, z: 1.6077651}
    - {x: -1.5244901, y: 0.022268295, z: 1.6729778}
    - {x: -1.5654404, y: 0.046740532, z: 1.7301847}
    - {x: -1.6002024, y: 0.07398224, z: 1.7741246}
  - points:
    - {x: 0, y: 0, z: 0}
    - {x: 0.009768263, y: -0.033981323, z: 0.03006973}
    - {x: 0.019536527, y: -0.06796265, z: 0.06013946}
    - {x: 0.018447554, y: -0.09342575, z: 0.09146659}
    - {x: 0.017358584, y: -0.118888855, z: 0.12279373}
    - {x: 0.0131765865, y: -0.1524167, z: 0.17212908}
    - {x: 0.008994589, y: -0.18594456, z: 0.22146441}
    - {x: 0.0001481329, y: -0.22730732, z: 0.28479326}
    - {x: -0.008698332, y: -0.26867008, z: 0.3481221}
    - {x: -0.020585988, y: -0.3183155, z: 0.42405283}
    - {x: -0.032473657, y: -0.36796093, z: 0.49998358}
    - {x: -0.050141145, y: -0.4226637, z: 0.5866971}
    - {x: -0.06780859, y: -0.47736645, z: 0.67341065}
    - {x: -0.090277284, y: -0.5335789, z: 0.7611489}
    - {x: -0.112746015, y: -0.5897913, z: 0.8488874}
    - {x: -0.13784371, y: -0.649415, z: 0.9399743}
    - {x: -0.16294143, y: -0.70903873, z: 1.0310612}
    - {x: -0.19283551, y: -0.7762451, z: 1.1227957}
    - {x: -0.2227296, y: -0.8434515, z: 1.2145302}
    - {x: -0.25567934, y: -0.91675234, z: 1.3076353}
    - {x: -0.2886291, y: -0.9900532, z: 1.4007401}
    - {x: -0.3240607, y: -1.0663629, z: 1.4912423}
    - {x: -0.35949224, y: -1.1426725, z: 1.5817444}
    - {x: -0.3940518, y: -1.2175522, z: 1.6639799}
    - {x: -0.42861122, y: -1.2924318, z: 1.7462155}
    - {x: -0.45956475, y: -1.3614397, z: 1.8183421}
    - {x: -0.49051845, y: -1.4304476, z: 1.8904687}
    - {x: -0.516086, y: -1.4917603, z: 1.9558157}
    - {x: -0.5416535, y: -1.5530729, z: 2.0211627}
    - {x: -0.55780715, y: -1.6058607, z: 2.0745091}
    - {x: -0.5739607, y: -1.6586485, z: 2.1278558}
    - {x: -0.58424354, y: -1.7061286, z: 2.1717632}
    - {x: -0.5945266, y: -1.7536087, z: 2.2156706}
    - {x: -0.60181004, y: -1.7961636, z: 2.2538223}
    - {x: -0.60909355, y: -1.8387184, z: 2.2919743}
    - {x: -0.6132042, y: -1.8737607, z: 2.320117}
    - {x: -0.6173147, y: -1.908803, z: 2.34826}
    - {x: -0.6155897, y: -1.9341612, z: 2.3652773}
    - {x: -0.61386454, y: -1.9595194, z: 2.3822947}
    - {x: -0.5885498, y: -2.0254545, z: 2.3827631}
    - {x: -0.5381887, y: -2.065916, z: 2.3037531}
    - {x: -0.50606483, y: -2.0761223, z: 2.231393}
    - {x: -0.46171704, y: -2.077074, z: 2.1360092}
    - {x: -0.4118141, y: -2.0747976, z: 2.0196939}
    - {x: -0.35624486, y: -2.0663576, z: 1.8770989}
    - {x: -0.30040455, y: -2.0545282, z: 1.7186232}
    - {x: -0.24799307, y: -2.0398235, z: 1.5454516}
    - {x: -0.20270196, y: -2.0246868, z: 1.3604147}
    - {x: -0.16401172, y: -2.01371, z: 1.173716}
    - {x: -0.13659641, y: -1.997201, z: 0.99331313}
    - {x: -0.11673917, y: -1.9791231, z: 0.82147676}
    - {x: -0.10183457, y: -1.9596453, z: 0.66068286}
    - {x: -0.09088564, y: -1.9405136, z: 0.5184276}
    - {x: -0.08633383, y: -1.9181528, z: 0.39673647}
    - {x: -0.082913116, y: -1.8941584, z: 0.30096197}
    - {x: -0.08227043, y: -1.8680601, z: 0.23747998}
    - {x: -0.08482661, y: -1.8291578, z: 0.19865513}
    - {x: -0.088309065, y: -1.780839, z: 0.1805761}
    - {x: -0.090634264, y: -1.7188015, z: 0.18636054}
    - {x: -0.0951545, y: -1.6436634, z: 0.2198147}
    - {x: -0.09844407, y: -1.557828, z: 0.27854902}
    - {x: -0.10345714, y: -1.4697695, z: 0.35645148}
    - {x: -0.11077369, y: -1.3742113, z: 0.45555323}
    - {x: -0.11835289, y: -1.2673864, z: 0.56306297}
    - {x: -0.121175416, y: -1.159296, z: 0.679317}
    - {x: -0.12194889, y: -1.0568552, z: 0.7992947}
    - {x: -0.12048349, y: -0.9595213, z: 0.9321372}
    - {x: -0.1263458, y: -0.86121273, z: 1.0703491}
    - {x: -0.13516079, y: -0.75771236, z: 1.2100888}
    - {x: -0.1466768, y: -0.65519905, z: 1.3481282}
    - {x: -0.15771209, y: -0.553915, z: 1.4861789}
    - {x: -0.17061105, y: -0.44965553, z: 1.6246117}
    - {x: -0.188141, y: -0.3523693, z: 1.7439582}
    - {x: -0.20534472, y: -0.2562847, z: 1.8641171}
    - {x: -0.22298653, y: -0.16830063, z: 1.9759461}
    - {x: -0.23366271, y: -0.08893108, z: 2.0757573}
    - {x: -0.2441612, y: -0.02391243, z: 2.1647005}
    - {x: -0.24998663, y: 0.022268295, z: 2.2495403}
    - {x: -0.24949077, y: 0.046740532, z: 2.3198917}
    - {x: -0.2517866, y: 0.07398224, z: 2.3758724}
  - points:
    - {x: 0, y: 0, z: 0}
    - {x: 0.025577236, y: -0.033981323, z: 0.01858528}
    - {x: 0.051154472, y: -0.06796265, z: 0.03717056}
    - {x: 0.0686871, y: -0.09342575, z: 0.063154824}
    - {x: 0.086219735, y: -0.118888855, z: 0.08913909}
    - {x: 0.111835025, y: -0.1524167, z: 0.13151035}
    - {x: 0.13745031, y: -0.18594456, z: 0.17388159}
    - {x: 0.16751714, y: -0.22730732, z: 0.2303155}
    - {x: 0.19758394, y: -0.26867008, z: 0.28674942}
    - {x: 0.2325976, y: -0.3183155, z: 0.35516608}
    - {x: 0.26761127, y: -0.36796093, z: 0.42358273}
    - {x: 0.3042869, y: -0.4226637, z: 0.5041202}
    - {x: 0.3409626, y: -0.47736645, z: 0.58465755}
    - {x: 0.3743563, y: -0.5335789, z: 0.6688461}
    - {x: 0.4077501, y: -0.5897913, z: 0.7530348}
    - {x: 0.44098517, y: -0.649415, z: 0.8414777}
    - {x: 0.47422022, y: -0.70903873, z: 0.92992055}
    - {x: 0.5039556, y: -0.7762451, z: 1.0217067}
    - {x: 0.533691, y: -0.8434515, z: 1.1134927}
    - {x: 0.5617599, y: -0.91675234, z: 1.2081838}
    - {x: 0.5898286, y: -0.9900532, z: 1.3028746}
    - {x: 0.6143597, y: -1.0663629, z: 1.3969184}
    - {x: 0.6388908, y: -1.1426725, z: 1.4909624}
    - {x: 0.6592683, y: -1.2175522, z: 1.5778059}
    - {x: 0.679646, y: -1.2924318, z: 1.6646494}
    - {x: 0.6969991, y: -1.3614397, z: 1.7411951}
    - {x: 0.71435195, y: -1.4304476, z: 1.8177408}
    - {x: 0.73207736, y: -1.4917603, z: 1.8856359}
    - {x: 0.7498029, y: -1.5530729, z: 1.953531}
    - {x: 0.76809055, y: -1.6058607, z: 2.006184}
    - {x: 0.7863784, y: -1.6586485, z: 2.0588372}
    - {x: 0.8038675, y: -1.7061286, z: 2.100403}
    - {x: 0.8213565, y: -1.7536087, z: 2.1419692}
    - {x: 0.8378891, y: -1.7961636, z: 2.1771157}
    - {x: 0.8544218, y: -1.8387184, z: 2.2122624}
    - {x: 0.86763805, y: -1.8737607, z: 2.2374465}
    - {x: 0.8808546, y: -1.908803, z: 2.2626307}
    - {x: 0.89225274, y: -1.9341612, z: 2.2753842}
    - {x: 0.90365094, y: -1.9595194, z: 2.2881374}
    - {x: 0.9244064, y: -2.0254545, z: 2.2736368}
    - {x: 0.91870844, y: -2.065916, z: 2.1801147}
    - {x: 0.902165, y: -2.0761223, z: 2.1026924}
    - {x: 0.8819779, y: -2.077074, z: 1.9994582}
    - {x: 0.8539818, y: -2.0747976, z: 1.876025}
    - {x: 0.815123, y: -2.0663576, z: 1.7280004}
    - {x: 0.76714903, y: -2.0545282, z: 1.5669687}
    - {x: 0.70776314, y: -2.0398235, z: 1.3960633}
    - {x: 0.63564247, y: -2.0246868, z: 1.2197438}
    - {x: 0.5572047, y: -2.01371, z: 1.0459598}
    - {x: 0.47334605, y: -1.997201, z: 0.8838966}
    - {x: 0.388408, y: -1.9791231, z: 0.7332062}
    - {x: 0.30595377, y: -1.9596453, z: 0.59436053}
    - {x: 0.2311961, y: -1.9405136, z: 0.47283798}
    - {x: 0.16335033, y: -1.9181528, z: 0.3717123}
    - {x: 0.10982291, y: -1.8941584, z: 0.29221845}
    - {x: 0.07302907, y: -1.8680601, z: 0.24048269}
    - {x: 0.048140395, y: -1.8291578, z: 0.21057521}
    - {x: 0.034696445, y: -1.780839, z: 0.1979959}
    - {x: 0.036215328, y: -1.7188015, z: 0.20404233}
    - {x: 0.052222244, y: -1.6436634, z: 0.23376425}
    - {x: 0.08408409, y: -1.557828, z: 0.28321487}
    - {x: 0.12581836, y: -1.4697695, z: 0.34918588}
    - {x: 0.1781497, y: -1.3742113, z: 0.43366146}
    - {x: 0.23521064, y: -1.2673864, z: 0.5250936}
    - {x: 0.30125958, y: -1.159296, z: 0.62080413}
    - {x: 0.37115496, y: -1.0568552, z: 0.71832275}
    - {x: 0.45042336, y: -0.9595213, z: 0.82493323}
    - {x: 0.52691954, y: -0.86121273, z: 0.9401948}
    - {x: 0.6019251, y: -0.75771236, z: 1.0584279}
    - {x: 0.67374593, y: -0.65519905, z: 1.1768731}
    - {x: 0.7459623, y: -0.553915, z: 1.2950448}
    - {x: 0.81689566, y: -0.44965553, z: 1.4146211}
    - {x: 0.87286377, y: -0.3523693, z: 1.5214783}
    - {x: 0.9295733, y: -0.2562847, z: 1.628801}
    - {x: 0.9810322, y: -0.16830063, z: 1.7296422}
    - {x: 1.0310625, y: -0.08893108, z: 1.8166664}
    - {x: 1.0748485, y: -0.02391243, z: 1.8947939}
    - {x: 1.1200033, y: 0.022268295, z: 1.9668548}
    - {x: 1.1617559, y: 0.046740532, z: 2.0234787}
    - {x: 1.1928033, y: 0.07398224, z: 2.0701175}
  - points:
    - {x: 0, y: 0, z: 0}
    - {x: 0.031616572, y: -0.033981323, z: 0.0000018834963}
    - {x: 0.063233145, y: -0.06796265, z: 0.0000037669927}
    - {x: 0.09269051, y: -0.09342575, z: 0.010720056}
    - {x: 0.12214788, y: -0.118888855, z: 0.021436343}
    - {x: 0.16777629, y: -0.1524167, z: 0.040659122}
    - {x: 0.21340467, y: -0.18594456, z: 0.05988189}
    - {x: 0.27090028, y: -0.22730732, z: 0.08786505}
    - {x: 0.32839587, y: -0.26867008, z: 0.11584821}
    - {x: 0.3969368, y: -0.3183155, z: 0.15061794}
    - {x: 0.46547776, y: -0.36796093, z: 0.18538766}
    - {x: 0.5424877, y: -0.4226637, z: 0.22898641}
    - {x: 0.61949766, y: -0.47736645, z: 0.2725851}
    - {x: 0.6959985, y: -0.5335789, z: 0.3210667}
    - {x: 0.7724995, y: -0.5897913, z: 0.3695484}
    - {x: 0.8513727, y: -0.649415, z: 0.42156515}
    - {x: 0.9302458, y: -0.70903873, z: 0.47358185}
    - {x: 1.0082529, y: -0.7762451, z: 0.5303604}
    - {x: 1.0862597, y: -0.8434515, z: 0.58713883}
    - {x: 1.164626, y: -0.91675234, z: 0.64724696}
    - {x: 1.2429919, y: -0.9900532, z: 0.7073551}
    - {x: 1.3181155, y: -1.0663629, z: 0.7690191}
    - {x: 1.3932393, y: -1.1426725, z: 0.8306833}
    - {x: 1.4607704, y: -1.2175522, z: 0.8889635}
    - {x: 1.5283016, y: -1.2924318, z: 0.9472437}
    - {x: 1.587333, y: -1.3614397, z: 0.99897057}
    - {x: 1.6463642, y: -1.4304476, z: 1.0506976}
    - {x: 1.7006121, y: -1.4917603, z: 1.0952071}
    - {x: 1.75486, y: -1.5530729, z: 1.1397166}
    - {x: 1.8006039, y: -1.6058607, z: 1.1715647}
    - {x: 1.8463477, y: -1.6586485, z: 1.2034127}
    - {x: 1.8849286, y: -1.7061286, z: 1.2267603}
    - {x: 1.9235094, y: -1.7536087, z: 1.2501082}
    - {x: 1.9575431, y: -1.7961636, z: 1.2688247}
    - {x: 1.991577, y: -1.8387184, z: 1.2875413}
    - {x: 2.0170722, y: -1.8737607, z: 1.3001474}
    - {x: 2.0425675, y: -1.908803, z: 1.3127533}
    - {x: 2.059285, y: -1.9341612, z: 1.3163714}
    - {x: 2.0760026, y: -1.9595194, z: 1.3199893}
    - {x: 2.0842707, y: -2.0254545, z: 1.2960583}
    - {x: 2.0246902, y: -2.065916, z: 1.2237465}
    - {x: 1.9657985, y: -2.0761223, z: 1.1708345}
    - {x: 1.8887873, y: -2.077074, z: 1.099182}
    - {x: 1.7935857, y: -2.0747976, z: 1.0157781}
    - {x: 1.6751416, y: -2.0663576, z: 0.91886437}
    - {x: 1.5416777, y: -2.0545282, z: 0.81678534}
    - {x: 1.3931779, y: -2.0398235, z: 0.7134262}
    - {x: 1.2311931, y: -2.0246868, z: 0.6131722}
    - {x: 1.0655879, y: -2.01371, z: 0.51868254}
    - {x: 0.90248644, y: -1.997201, z: 0.43686152}
    - {x: 0.7451965, y: -1.9791231, z: 0.36487576}
    - {x: 0.5968782, y: -1.9596453, z: 0.30101264}
    - {x: 0.4649688, y: -1.9405136, z: 0.2466403}
    - {x: 0.3506402, y: -1.9181528, z: 0.20470664}
    - {x: 0.2606103, y: -1.8941584, z: 0.1718574}
    - {x: 0.20043395, y: -1.8680601, z: 0.15162916}
    - {x: 0.16271941, y: -1.8291578, z: 0.14206271}
    - {x: 0.1444491, y: -1.780839, z: 0.13978799}
    - {x: 0.1492319, y: -1.7188015, z: 0.14378688}
    - {x: 0.17965187, y: -1.6436634, z: 0.15842378}
    - {x: 0.234495, y: -1.557828, z: 0.17970224}
    - {x: 0.3070355, y: -1.4697695, z: 0.20854314}
    - {x: 0.39902598, y: -1.3742113, z: 0.24612571}
    - {x: 0.4989317, y: -1.2673864, z: 0.2865563}
    - {x: 0.6086237, y: -1.159296, z: 0.32516512}
    - {x: 0.72249025, y: -1.0568552, z: 0.36297587}
    - {x: 0.84928375, y: -0.9595213, z: 0.40263277}
    - {x: 0.97891957, y: -0.86121273, z: 0.450918}
    - {x: 1.109096, y: -0.75771236, z: 0.5024835}
    - {x: 1.2368206, y: -0.65519905, z: 0.5560924}
    - {x: 1.3647045, y: -0.553915, z: 0.60924757}
    - {x: 1.492376, y: -0.44965553, z: 0.6642932}
    - {x: 1.6004642, y: -0.3523693, z: 0.7178453}
    - {x: 1.7094259, y: -0.2562847, z: 0.77133816}
    - {x: 1.8103299, y: -0.16830063, z: 0.82267356}
    - {x: 1.9019568, y: -0.08893108, z: 0.8636706}
    - {x: 1.9833027, y: -0.02391243, z: 0.9011403}
    - {x: 2.06219, y: 0.022268295, z: 0.93289745}
    - {x: 2.1292512, y: 0.046740532, z: 0.95416564}
    - {x: 2.1817827, y: 0.07398224, z: 0.97364795}
  - points:
    - {x: 0, y: 0, z: 0}
    - {x: 0.02557945, y: -0.033981323, z: -0.018582232}
    - {x: 0.0511589, y: -0.06796265, z: -0.037164465}
    - {x: 0.08128929, y: -0.09342575, z: -0.045809414}
    - {x: 0.11141968, y: -0.118888855, z: -0.054454364}
    - {x: 0.1596327, y: -0.1524167, z: -0.06572252}
    - {x: 0.2078457, y: -0.18594456, z: -0.076990664}
    - {x: 0.2708087, y: -0.22730732, z: -0.08814689}
    - {x: 0.3337717, y: -0.26867008, z: -0.0993031}
    - {x: 0.40965962, y: -0.3183155, z: -0.11146115}
    - {x: 0.48554757, y: -0.36796093, z: -0.12361923}
    - {x: 0.5734766, y: -0.4226637, z: -0.1336124}
    - {x: 0.6614056, y: -0.47736645, z: -0.14360565}
    - {x: 0.7517929, y: -0.5335789, z: -0.14934926}
    - {x: 0.8421804, y: -0.5897913, z: -0.15509291}
    - {x: 0.9365648, y: -0.649415, z: -0.159371}
    - {x: 1.0309491, y: -0.70903873, z: -0.16364905}
    - {x: 1.1274318, y: -0.7762451, z: -0.16356564}
    - {x: 1.2239141, y: -0.8434515, z: -0.16348222}
    - {x: 1.3226445, y: -0.91675234, z: -0.16091627}
    - {x: 1.4213746, y: -0.9900532, z: -0.15835011}
    - {x: 1.5183959, y: -1.0663629, z: -0.15261936}
    - {x: 1.6154177, y: -1.1426725, z: -0.14688867}
    - {x: 1.7043078, y: -1.2175522, z: -0.13943276}
    - {x: 1.7931979, y: -1.2924318, z: -0.13197698}
    - {x: 1.8713596, y: -1.3614397, z: -0.124826826}
    - {x: 1.9495212, y: -1.4304476, z: -0.11767651}
    - {x: 2.0195706, y: -1.4917603, z: -0.113553636}
    - {x: 2.0896204, y: -1.5530729, z: -0.109430835}
    - {x: 2.1453476, y: -1.6058607, z: -0.11055275}
    - {x: 2.2010748, y: -1.6586485, z: -0.111674756}
    - {x: 2.246011, y: -1.7061286, z: -0.11546342}
    - {x: 2.290947, y: -1.7536087, z: -0.11925173}
    - {x: 2.329482, y: -1.7961636, z: -0.12411435}
    - {x: 2.3680174, y: -1.8387184, z: -0.12897696}
    - {x: 2.3960533, y: -1.8737607, z: -0.13376406}
    - {x: 2.424089, y: -1.908803, z: -0.13855141}
    - {x: 2.4397402, y: -1.9341612, z: -0.14545056}
    - {x: 2.4553916, y: -1.9595194, z: -0.15235004}
    - {x: 2.4480145, y: -2.0254545, z: -0.17657052}
    - {x: 2.3573089, y: -2.065916, z: -0.20005138}
    - {x: 2.2785637, y: -2.0761223, z: -0.20824243}
    - {x: 2.174144, y: -2.077074, z: -0.22094448}
    - {x: 2.0481007, y: -2.0747976, z: -0.23246159}
    - {x: 1.8953129, y: -2.0663576, z: -0.24124672}
    - {x: 1.7273378, y: -2.0545282, z: -0.2453823}
    - {x: 1.546446, y: -2.0398235, z: -0.24171558}
    - {x: 1.3564698, y: -2.0246868, z: -0.22761048}
    - {x: 1.1669526, y: -2.01371, z: -0.20671391}
    - {x: 0.98690766, y: -1.997201, z: -0.17703988}
    - {x: 0.81734526, y: -1.9791231, z: -0.14282487}
    - {x: 0.6598154, y: -1.9596453, z: -0.10731188}
    - {x: 0.5211392, y: -1.9405136, z: -0.07376564}
    - {x: 0.40399745, y: -1.9181528, z: -0.040490013}
    - {x: 0.31185344, y: -1.8941584, z: -0.014147354}
    - {x: 0.25127986, y: -1.8680601, z: 0.0048584375}
    - {x: 0.21514514, y: -1.8291578, z: 0.019287065}
    - {x: 0.1990271, y: -1.780839, z: 0.028185798}
    - {x: 0.20524696, y: -1.7188015, z: 0.028609712}
    - {x: 0.23846059, y: -1.6436634, z: 0.0225708}
    - {x: 0.29533678, y: -1.557828, z: 0.0075494484}
    - {x: 0.37097552, y: -1.4697695, z: -0.011756018}
    - {x: 0.46748787, y: -1.3742113, z: -0.03542172}
    - {x: 0.5720778, y: -1.2673864, z: -0.061435807}
    - {x: 0.6835142, y: -1.159296, z: -0.09467595}
    - {x: 0.7978588, y: -1.0568552, z: -0.13101551}
    - {x: 0.9237466, y: -0.9595213, z: -0.17345975}
    - {x: 1.0570055, y: -0.86121273, z: -0.21059422}
    - {x: 1.1926299, y: -0.75771236, z: -0.24539268}
    - {x: 1.3274717, y: -0.65519905, z: -0.27709678}
    - {x: 1.4621758, y: -0.553915, z: -0.30926162}
    - {x: 1.5978193, y: -0.44965553, z: -0.33977216}
    - {x: 1.7167417, y: -0.3523693, z: -0.3599803}
    - {x: 1.8363359, y: -0.2562847, z: -0.38074976}
    - {x: 1.9481431, y: -0.16830063, z: -0.39852843}
    - {x: 2.0463681, y: -0.08893108, z: -0.41921806}
    - {x: 2.1342025, y: -0.02391243, z: -0.4367184}
    - {x: 2.2166903, y: 0.022268295, z: -0.45739514}
    - {x: 2.283445, y: 0.046740532, z: -0.4796064}
    - {x: 2.3373952, y: 0.07398224, z: -0.4947221}
  - points:
    - {x: 0, y: 0, z: 0}
    - {x: 0.009771847, y: -0.033981323, z: -0.030068567}
    - {x: 0.019543694, y: -0.06796265, z: -0.060137134}
    - {x: 0.038838316, y: -0.09342575, z: -0.084841244}
    - {x: 0.05813294, y: -0.118888855, z: -0.10954536}
    - {x: 0.09051483, y: -0.1524167, z: -0.14700039}
    - {x: 0.12289672, y: -0.18594456, z: -0.18445541}
    - {x: 0.1672774, y: -0.22730732, z: -0.2304897}
    - {x: 0.21165808, y: -0.26867008, z: -0.276524}
    - {x: 0.26590636, y: -0.3183155, z: -0.33096588}
    - {x: 0.32015467, y: -0.36796093, z: -0.38540778}
    - {x: 0.38541692, y: -0.4226637, z: -0.44517583}
    - {x: 0.4506791, y: -0.47736645, z: -0.5049439}
    - {x: 0.52042794, y: -0.5335789, z: -0.5627189}
    - {x: 0.5901769, y: -0.5897913, z: -0.62049407}
    - {x: 0.6640209, y: -0.649415, z: -0.67943287}
    - {x: 0.73786485, y: -0.70903873, z: -0.7383716}
    - {x: 0.81596994, y: -0.7762451, z: -0.7950152}
    - {x: 0.8940749, y: -0.8434515, z: -0.85165864}
    - {x: 0.9754576, y: -0.91675234, z: -0.907615}
    - {x: 1.0568403, y: -0.9900532, z: -0.963571}
    - {x: 1.1387006, y: -1.0663629, z: -1.0159625}
    - {x: 1.2205614, y: -1.1426725, z: -1.0683542}
    - {x: 1.2968575, y: -1.2175522, z: -1.1145705}
    - {x: 1.3731534, y: -1.2924318, z: -1.160787}
    - {x: 1.4405903, y: -1.3614397, z: -1.2009447}
    - {x: 1.5080272, y: -1.4304476, z: -1.2411022}
    - {x: 1.5671217, y: -1.4917603, z: -1.2789407}
    - {x: 1.6262165, y: -1.5530729, z: -1.3167795}
    - {x: 1.6706414, y: -1.6058607, z: -1.3504429}
    - {x: 1.7150662, y: -1.6586485, z: -1.3841062}
    - {x: 1.7491933, y: -1.7061286, z: -1.4135841}
    - {x: 1.7833205, y: -1.7536087, z: -1.4430616}
    - {x: 1.811638, y: -1.7961636, z: -1.469646}
    - {x: 1.8399556, y: -1.8387184, z: -1.4962304}
    - {x: 1.8598233, y: -1.8737607, z: -1.5165824}
    - {x: 1.8796906, y: -1.908803, z: -1.5369343}
    - {x: 1.8882976, y: -1.9341612, z: -1.5517154}
    - {x: 1.8969045, y: -1.9595194, z: -1.5664968}
    - {x: 1.8766998, y: -2.0254545, z: -1.5817555}
    - {x: 1.7895156, y: -2.065916, z: -1.5474365}
    - {x: 1.720995, y: -2.0761223, z: -1.5077779}
    - {x: 1.6290516, y: -2.077074, z: -1.4566778}
    - {x: 1.5203108, y: -2.0747976, z: -1.3919089}
    - {x: 1.3915391, y: -2.0663576, z: -1.3092097}
    - {x: 1.2532135, y: -2.0545282, z: -1.2138222}
    - {x: 1.1090242, y: -2.0398235, z: -1.1045302}
    - {x: 0.96362096, y: -2.0246868, z: -0.9814537}
    - {x: 0.8225811, y: -2.01371, z: -0.8531527}
    - {x: 0.69436365, y: -1.997201, z: -0.7233181}
    - {x: 0.57729584, y: -1.9791231, z: -0.5959713}
    - {x: 0.4707255, y: -1.9596453, z: -0.47464693}
    - {x: 0.37825212, y: -1.9405136, z: -0.36599562}
    - {x: 0.30304137, y: -1.9181528, z: -0.27022088}
    - {x: 0.24397913, y: -1.8941584, z: -0.19474831}
    - {x: 0.20614539, y: -1.8680601, z: -0.14376806}
    - {x: 0.18539272, y: -1.8291578, z: -0.11085559}
    - {x: 0.1775835, y: -1.780839, z: -0.09418242}
    - {x: 0.18286464, y: -1.7188015, z: -0.0974954}
    - {x: 0.20618545, y: -1.6436634, z: -0.121903464}
    - {x: 0.24336992, y: -1.557828, z: -0.167487}
    - {x: 0.29321548, y: -1.4697695, z: -0.22756478}
    - {x: 0.35738525, y: -1.3742113, z: -0.3034393}
    - {x: 0.4267096, y: -1.2673864, z: -0.38596153}
    - {x: 0.49732545, y: -1.159296, z: -0.47835404}
    - {x: 0.5684723, y: -1.0568552, z: -0.57496345}
    - {x: 0.6453696, y: -0.9595213, z: -0.68329656}
    - {x: 0.73135126, y: -0.86121273, z: -0.7916666}
    - {x: 0.82061964, y: -0.75771236, z: -0.8995372}
    - {x: 0.91107374, y: -0.65519905, z: -1.0044444}
    - {x: 1.0011457, y: -0.553915, z: -1.1096433}
    - {x: 1.0929499, y: -0.44965553, z: -1.2140561}
    - {x: 1.1772821, y: -0.3523693, z: -1.3003057}
    - {x: 1.2618278, y: -0.2562847, z: -1.3874043}
    - {x: 1.3418317, y: -0.16830063, z: -1.4675062}
    - {x: 1.4091364, y: -0.08893108, z: -1.5419797}
    - {x: 1.4699094, y: -0.02391243, z: -1.6077654}
    - {x: 1.52449, y: 0.022268295, z: -1.6729784}
    - {x: 1.56544, y: 0.046740532, z: -1.730185}
    - {x: 1.6002021, y: 0.07398224, z: -1.7741251}
  - points:
    - {x: 0, y: 0, z: 0}
    - {x: -0.009768272, y: -0.033981323, z: -0.03006973}
    - {x: -0.019536544, y: -0.06796265, z: -0.06013946}
    - {x: -0.01844758, y: -0.09342575, z: -0.0914666}
    - {x: -0.017358616, y: -0.118888855, z: -0.12279374}
    - {x: -0.013176631, y: -0.1524167, z: -0.1721291}
    - {x: -0.008994642, y: -0.18594456, z: -0.22146446}
    - {x: -0.0001482041, y: -0.22730732, z: -0.2847933}
    - {x: 0.008698231, y: -0.26867008, z: -0.34812212}
    - {x: 0.020585887, y: -0.3183155, z: -0.42405286}
    - {x: 0.032473538, y: -0.36796093, z: -0.49998364}
    - {x: 0.050141033, y: -0.4226637, z: -0.5866972}
    - {x: 0.067808434, y: -0.47736645, z: -0.6734108}
    - {x: 0.09027713, y: -0.5335789, z: -0.76114905}
    - {x: 0.11274583, y: -0.5897913, z: -0.84888756}
    - {x: 0.13784353, y: -0.649415, z: -0.9399744}
    - {x: 0.16294122, y: -0.70903873, z: -1.0310613}
    - {x: 0.19283529, y: -0.7762451, z: -1.1227959}
    - {x: 0.22272936, y: -0.8434515, z: -1.2145303}
    - {x: 0.255679, y: -0.91675234, z: -1.3076355}
    - {x: 0.28862888, y: -0.9900532, z: -1.4007405}
    - {x: 0.32406032, y: -1.0663629, z: -1.4912424}
    - {x: 0.35949197, y: -1.1426725, z: -1.5817448}
    - {x: 0.39405158, y: -1.2175522, z: -1.6639802}
    - {x: 0.42861092, y: -1.2924318, z: -1.7462158}
    - {x: 0.45956436, y: -1.3614397, z: -1.8183424}
    - {x: 0.49051797, y: -1.4304476, z: -1.890469}
    - {x: 0.51608557, y: -1.4917603, z: -1.9558159}
    - {x: 0.54165316, y: -1.5530729, z: -2.0211632}
    - {x: 0.5578068, y: -1.6058607, z: -2.0745096}
    - {x: 0.5739604, y: -1.6586485, z: -2.127856}
    - {x: 0.5842431, y: -1.7061286, z: -2.1717637}
    - {x: 0.59452623, y: -1.7536087, z: -2.215671}
    - {x: 0.6018096, y: -1.7961636, z: -2.2538228}
    - {x: 0.60909307, y: -1.8387184, z: -2.2919745}
    - {x: 0.6132038, y: -1.8737607, z: -2.3201177}
    - {x: 0.6173143, y: -1.908803, z: -2.3482604}
    - {x: 0.6155893, y: -1.9341612, z: -2.3652778}
    - {x: 0.6138641, y: -1.9595194, z: -2.3822951}
    - {x: 0.5885494, y: -2.0254545, z: -2.3827636}
    - {x: 0.5381881, y: -2.065916, z: -2.3037534}
    - {x: 0.5060644, y: -2.0761223, z: -2.2313936}
    - {x: 0.4617166, y: -2.077074, z: -2.1360097}
    - {x: 0.41181365, y: -2.0747976, z: -2.0196943}
    - {x: 0.35624453, y: -2.0663576, z: -1.8770992}
    - {x: 0.30040416, y: -2.0545282, z: -1.7186233}
    - {x: 0.24799277, y: -2.0398235, z: -1.5454518}
    - {x: 0.20270166, y: -2.0246868, z: -1.360415}
    - {x: 0.16401148, y: -2.01371, z: -1.1737161}
    - {x: 0.13659625, y: -1.997201, z: -0.9933134}
    - {x: 0.116738975, y: -1.9791231, z: -0.8214769}
    - {x: 0.101834446, y: -1.9596453, z: -0.660683}
    - {x: 0.09088554, y: -1.9405136, z: -0.5184277}
    - {x: 0.08633376, y: -1.9181528, z: -0.39673653}
    - {x: 0.08291306, y: -1.8941584, z: -0.30096203}
    - {x: 0.08227037, y: -1.8680601, z: -0.23748003}
    - {x: 0.084826574, y: -1.8291578, z: -0.19865517}
    - {x: 0.08830903, y: -1.780839, z: -0.18057615}
    - {x: 0.090634234, y: -1.7188015, z: -0.18636058}
    - {x: 0.095154464, y: -1.6436634, z: -0.21981475}
    - {x: 0.09844401, y: -1.557828, z: -0.27854908}
    - {x: 0.10345707, y: -1.4697695, z: -0.35645154}
    - {x: 0.11077358, y: -1.3742113, z: -0.45555332}
    - {x: 0.11835279, y: -1.2673864, z: -0.5630631}
    - {x: 0.12117527, y: -1.159296, z: -0.6793171}
    - {x: 0.121948704, y: -1.0568552, z: -0.7992949}
    - {x: 0.12048329, y: -0.9595213, z: -0.9321373}
    - {x: 0.12634557, y: -0.86121273, z: -1.0703492}
    - {x: 0.13516048, y: -0.75771236, z: -1.2100891}
    - {x: 0.1466765, y: -0.65519905, z: -1.3481283}
    - {x: 0.15771185, y: -0.553915, z: -1.486179}
    - {x: 0.17061065, y: -0.44965553, z: -1.6246119}
    - {x: 0.18814062, y: -0.3523693, z: -1.7439586}
    - {x: 0.20534427, y: -0.2562847, z: -1.8641175}
    - {x: 0.22298607, y: -0.16830063, z: -1.9759463}
    - {x: 0.2336623, y: -0.08893108, z: -2.0757575}
    - {x: 0.2441608, y: -0.02391243, z: -2.1647007}
    - {x: 0.24998619, y: 0.022268295, z: -2.2495408}
    - {x: 0.24949026, y: 0.046740532, z: -2.3198917}
    - {x: 0.25178602, y: 0.07398224, z: -2.3758726}
  - points:
    - {x: 0, y: 0, z: 0}
    - {x: -0.025577243, y: -0.033981323, z: -0.018585276}
    - {x: -0.051154487, y: -0.06796265, z: -0.03717055}
    - {x: -0.068687126, y: -0.09342575, z: -0.06315482}
    - {x: -0.08621977, y: -0.118888855, z: -0.08913908}
    - {x: -0.11183507, y: -0.1524167, z: -0.13151033}
    - {x: -0.13745037, y: -0.18594456, z: -0.17388159}
    - {x: -0.16751722, y: -0.22730732, z: -0.23031549}
    - {x: -0.19758405, y: -0.26867008, z: -0.2867494}
    - {x: -0.23259771, y: -0.3183155, z: -0.35516605}
    - {x: -0.26761138, y: -0.36796093, z: -0.42358273}
    - {x: -0.30428705, y: -0.4226637, z: -0.5041202}
    - {x: -0.34096277, y: -0.47736645, z: -0.58465755}
    - {x: -0.3743565, y: -0.5335789, z: -0.6688461}
    - {x: -0.40775034, y: -0.5897913, z: -0.7530348}
    - {x: -0.44098538, y: -0.649415, z: -0.8414777}
    - {x: -0.47422045, y: -0.70903873, z: -0.92992055}
    - {x: -0.5039559, y: -0.7762451, z: -1.0217067}
    - {x: -0.5336913, y: -0.8434515, z: -1.1134927}
    - {x: -0.5617603, y: -0.91675234, z: -1.2081838}
    - {x: -0.589829, y: -0.9900532, z: -1.3028747}
    - {x: -0.6143601, y: -1.0663629, z: -1.3969183}
    - {x: -0.6388912, y: -1.1426725, z: -1.4909625}
    - {x: -0.65926874, y: -1.2175522, z: -1.577806}
    - {x: -0.6796465, y: -1.2924318, z: -1.6646495}
    - {x: -0.6969996, y: -1.3614397, z: -1.7411951}
    - {x: -0.7143525, y: -1.4304476, z: -1.8177408}
    - {x: -0.73207784, y: -1.4917603, z: -1.8856359}
    - {x: -0.7498034, y: -1.5530729, z: -1.9535311}
    - {x: -0.7680911, y: -1.6058607, z: -2.006184}
    - {x: -0.78637874, y: -1.6586485, z: -2.0588372}
    - {x: -0.8038682, y: -1.7061286, z: -2.1004033}
    - {x: -0.8213571, y: -1.7536087, z: -2.1419692}
    - {x: -0.83788973, y: -1.7961636, z: -2.1771157}
    - {x: -0.85442233, y: -1.8387184, z: -2.2122624}
    - {x: -0.86763877, y: -1.8737607, z: -2.2374468}
    - {x: -0.8808552, y: -1.908803, z: -2.2626307}
    - {x: -0.8922533, y: -1.9341612, z: -2.2753842}
    - {x: -0.90365154, y: -1.9595194, z: -2.2881374}
    - {x: -0.924407, y: -2.0254545, z: -2.2736368}
    - {x: -0.91870904, y: -2.065916, z: -2.1801147}
    - {x: -0.90216565, y: -2.0761223, z: -2.1026926}
    - {x: -0.8819785, y: -2.077074, z: -1.9994583}
    - {x: -0.8539824, y: -2.0747976, z: -1.8760251}
    - {x: -0.81512344, y: -2.0663576, z: -1.7280004}
    - {x: -0.76714945, y: -2.0545282, z: -1.5669686}
    - {x: -0.7077635, y: -2.0398235, z: -1.3960632}
    - {x: -0.6356428, y: -2.0246868, z: -1.2197438}
    - {x: -0.55720496, y: -2.01371, z: -1.0459598}
    - {x: -0.47334632, y: -1.997201, z: -0.88389665}
    - {x: -0.3884082, y: -1.9791231, z: -0.7332062}
    - {x: -0.30595395, y: -1.9596453, z: -0.59436053}
    - {x: -0.23119625, y: -1.9405136, z: -0.472838}
    - {x: -0.16335042, y: -1.9181528, z: -0.3717123}
    - {x: -0.10982298, y: -1.8941584, z: -0.29221848}
    - {x: -0.073029146, y: -1.8680601, z: -0.24048269}
    - {x: -0.04814045, y: -1.8291578, z: -0.21057522}
    - {x: -0.0346965, y: -1.780839, z: -0.19799592}
    - {x: -0.036215376, y: -1.7188015, z: -0.20404235}
    - {x: -0.0522223, y: -1.6436634, z: -0.23376426}
    - {x: -0.084084176, y: -1.557828, z: -0.28321487}
    - {x: -0.12581845, y: -1.4697695, z: -0.34918588}
    - {x: -0.17814983, y: -1.3742113, z: -0.43366146}
    - {x: -0.23521079, y: -1.2673864, z: -0.5250936}
    - {x: -0.30125976, y: -1.159296, z: -0.62080413}
    - {x: -0.3711552, y: -1.0568552, z: -0.7183228}
    - {x: -0.4504236, y: -0.9595213, z: -0.82493323}
    - {x: -0.52691984, y: -0.86121273, z: -0.9401948}
    - {x: -0.60192543, y: -0.75771236, z: -1.0584279}
    - {x: -0.6737462, y: -0.65519905, z: -1.176873}
    - {x: -0.7459626, y: -0.553915, z: -1.2950448}
    - {x: -0.8168961, y: -0.44965553, z: -1.414621}
    - {x: -0.8728643, y: -0.3523693, z: -1.5214784}
    - {x: -0.9295739, y: -0.2562847, z: -1.6288011}
    - {x: -0.98103267, y: -0.16830063, z: -1.729642}
    - {x: -1.031063, y: -0.08893108, z: -1.8166664}
    - {x: -1.074849, y: -0.02391243, z: -1.8947937}
    - {x: -1.1200039, y: 0.022268295, z: -1.9668549}
    - {x: -1.1617564, y: 0.046740532, z: -2.0234785}
    - {x: -1.1928039, y: 0.07398224, z: -2.0701175}
  - points:
    - {x: 0, y: 0, z: 0}
    - {x: -0.031616576, y: -0.033981323, z: -0.0000018761032}
    - {x: -0.06323315, y: -0.06796265, z: -0.0000037522063}
    - {x: -0.09269053, y: -0.09342575, z: -0.010720036}
    - {x: -0.1221479, y: -0.118888855, z: -0.021436315}
    - {x: -0.16777632, y: -0.1524167, z: -0.04065908}
    - {x: -0.21340473, y: -0.18594456, z: -0.059881855}
    - {x: -0.27090034, y: -0.22730732, z: -0.08786499}
    - {x: -0.32839593, y: -0.26867008, z: -0.11584813}
    - {x: -0.3969369, y: -0.3183155, z: -0.15061785}
    - {x: -0.46547785, y: -0.36796093, z: -0.18538758}
    - {x: -0.5424878, y: -0.4226637, z: -0.22898632}
    - {x: -0.6194978, y: -0.47736645, z: -0.27258497}
    - {x: -0.69599867, y: -0.5335789, z: -0.3210666}
    - {x: -0.77249974, y: -0.5897913, z: -0.36954826}
    - {x: -0.8513729, y: -0.649415, z: -0.42156503}
    - {x: -0.93024606, y: -0.70903873, z: -0.4735817}
    - {x: -1.0082531, y: -0.7762451, z: -0.5303602}
    - {x: -1.08626, y: -0.8434515, z: -0.58713865}
    - {x: -1.1646262, y: -0.91675234, z: -0.6472467}
    - {x: -1.2429923, y: -0.9900532, z: -0.7073549}
    - {x: -1.3181158, y: -1.0663629, z: -0.76901877}
    - {x: -1.3932397, y: -1.1426725, z: -0.8306831}
    - {x: -1.4607707, y: -1.2175522, z: -0.8889634}
    - {x: -1.5283021, y: -1.2924318, z: -0.9472435}
    - {x: -1.5873334, y: -1.3614397, z: -0.99897027}
    - {x: -1.6463646, y: -1.4304476, z: -1.0506973}
    - {x: -1.7006124, y: -1.4917603, z: -1.0952069}
    - {x: -1.7548606, y: -1.5530729, z: -1.1397165}
    - {x: -1.8006042, y: -1.6058607, z: -1.1715643}
    - {x: -1.846348, y: -1.6586485, z: -1.2034124}
    - {x: -1.8849292, y: -1.7061286, z: -1.22676}
    - {x: -1.9235098, y: -1.7536087, z: -1.2501079}
    - {x: -1.9575436, y: -1.7961636, z: -1.2688243}
    - {x: -1.9915775, y: -1.8387184, z: -1.2875409}
    - {x: -2.017073, y: -1.8737607, z: -1.3001472}
    - {x: -2.042568, y: -1.908803, z: -1.312753}
    - {x: -2.0592854, y: -1.9341612, z: -1.3163711}
    - {x: -2.076003, y: -1.9595194, z: -1.319989}
    - {x: -2.0842712, y: -2.0254545, z: -1.2960579}
    - {x: -2.0246906, y: -2.065916, z: -1.2237462}
    - {x: -1.9657991, y: -2.0761223, z: -1.1708343}
    - {x: -1.8887879, y: -2.077074, z: -1.0991818}
    - {x: -1.7935863, y: -2.0747976, z: -1.0157778}
    - {x: -1.6751419, y: -2.0663576, z: -0.91886413}
    - {x: -1.5416781, y: -2.0545282, z: -0.81678504}
    - {x: -1.3931781, y: -2.0398235, z: -0.7134259}
    - {x: -1.2311933, y: -2.0246868, z: -0.613172}
    - {x: -1.0655881, y: -2.01371, z: -0.51868236}
    - {x: -0.9024867, y: -1.997201, z: -0.4368614}
    - {x: -0.7451967, y: -1.9791231, z: -0.36487564}
    - {x: -0.59687835, y: -1.9596453, z: -0.30101252}
    - {x: -0.46496892, y: -1.9405136, z: -0.24664022}
    - {x: -0.3506403, y: -1.9181528, z: -0.2047066}
    - {x: -0.26061037, y: -1.8941584, z: -0.17185737}
    - {x: -0.20043401, y: -1.8680601, z: -0.15162912}
    - {x: -0.16271946, y: -1.8291578, z: -0.14206268}
    - {x: -0.14444914, y: -1.780839, z: -0.13978797}
    - {x: -0.14923194, y: -1.7188015, z: -0.14378686}
    - {x: -0.17965193, y: -1.6436634, z: -0.15842375}
    - {x: -0.23449506, y: -1.557828, z: -0.17970219}
    - {x: -0.3070356, y: -1.4697695, z: -0.20854308}
    - {x: -0.39902607, y: -1.3742113, z: -0.24612564}
    - {x: -0.49893183, y: -1.2673864, z: -0.2865562}
    - {x: -0.6086238, y: -1.159296, z: -0.32516503}
    - {x: -0.72249043, y: -1.0568552, z: -0.36297578}
    - {x: -0.849284, y: -0.9595213, z: -0.40263262}
    - {x: -0.9789198, y: -0.86121273, z: -0.4509178}
    - {x: -1.1090963, y: -0.75771236, z: -0.50248325}
    - {x: -1.2368208, y: -0.65519905, z: -0.5560921}
    - {x: -1.3647047, y: -0.553915, z: -0.6092474}
    - {x: -1.4923762, y: -0.44965553, z: -0.66429293}
    - {x: -1.6004647, y: -0.3523693, z: -0.7178451}
    - {x: -1.7094264, y: -0.2562847, z: -0.77133787}
    - {x: -1.8103303, y: -0.16830063, z: -0.8226732}
    - {x: -1.9019573, y: -0.08893108, z: -0.8636703}
    - {x: -1.9833031, y: -0.02391243, z: -0.90113986}
    - {x: -2.0621905, y: 0.022268295, z: -0.9328972}
    - {x: -2.1292515, y: 0.046740532, z: -0.95416516}
    - {x: -2.1817832, y: 0.07398224, z: -0.9736476}
  id: 6
